Churn Prediction with Deep Learning
…
Now we can create our predict_model() function, which wraps keras::predict_proba(). The trick here is to realize that its inputs must be x a model, newdata a dataframe object (this is important), and type which is not used but can be use to switch the output type. The output is also a little tricky because it must be in the format of probabilities by classification (this is important; shown next).

# setup lime::predict_model() function for keras
predict_model.keras.models.Sequential <- function(x, newdata, type, ...) {
  pred <- predict_proba(object = x, x = as.matrix(newdata))
  data.frame(Yes = pred, No = 1 - pred)
}

Run this next script to show you what the output looks like and to test our predict_model() function. See how its the probabilities by classification. It must be in this form for model_type = "classification".

# test our predict_model() function
predict_model(x = model_keras, newdata = x_test_tbl, type = 'raw') %>%
  tibble::as_tibble()

## # A tibble: 15,153 x 2
##           Yes        No
##         <dbl>     <dbl>
##  1 0.05199283 0.9480072
##  2 0.02894226 0.9710577
##  3 0.02852490 0.9714751
##  4 0.01125149 0.9887485
##  5 0.12154257 0.8784574
##  6 0.14310536 0.8568946
##  7 0.03112124 0.9688788
##  8 0.02550919 0.9744908
##  9 0.03075550 0.9692445
## 10 0.01989079 0.9801092
## # ... with 15,143 more rows
…
